{
  "project_info": {
    "project_number": "471427896341",
    "firebase_url": "https://robust-form-258421.firebaseio.com",
    "project_id": "robust-form-258421",
    "storage_bucket": "robust-form-258421.appspot.com"
  },
  "client": [
    {
      "client_info": {
        "mobilesdk_app_id": "1:471427896341:android:63695b39a269e5be6d6a1c",
        "android_client_info": {
          "package_name": "com.demo.easitraveler"
        }
      },
      "oauth_client": [
        {
          "client_id": "471427896341-fsrbvrm8mb2isrnbbcil3lcu29kahkg4.apps.googleusercontent.com",
          "client_type": 3
        }
      ],
      "api_key": [
        {
          "current_key": "AIzaSyBsGW8dQLkOFS8KCLfQLR0D9eh1zeo65PE"
        }
      ],
      "services": {
        "appinvite_service": {
          "other_platform_oauth_client": [
            {
              "client_id": "471427896341-2i9ba3jrovm60ju47ggrajr5qoh7jp9m.apps.googleusercontent.com",
              "client_type": 3
            },
            {
              "client_id": "471427896341-vrjrqsc4npajh37n1a7dm9ibqprc7rmp.apps.googleusercontent.com",
              "client_type": 2,
              "ios_info": {
                "bundle_id": "com.dylananderson.Lutron"
              }
            }
          ]
        }
      }
    },
    {
      "client_info": {
        "mobilesdk_app_id": "1:471427896341:android:0229bf4787163f0b6d6a1c",
        "android_client_info": {
          "package_name": "com.demo.lightkit"
        }
      },
      "oauth_client": [
        {
          "client_id": "471427896341-fsrbvrm8mb2isrnbbcil3lcu29kahkg4.apps.googleusercontent.com",
          "client_type": 3
        }
      ],
      "api_key": [
        {
          "current_key": "AIzaSyBsGW8dQLkOFS8KCLfQLR0D9eh1zeo65PE"
        }
      ],
      "services": {
        "appinvite_service": {
          "other_platform_oauth_client": [
            {
              "client_id": "471427896341-2i9ba3jrovm60ju47ggrajr5qoh7jp9m.apps.googleusercontent.com",
              "client_type": 3
            },
            {
              "client_id": "471427896341-vrjrqsc4npajh37n1a7dm9ibqprc7rmp.apps.googleusercontent.com",
              "client_type": 2,
              "ios_info": {
                "bundle_id": "com.dylananderson.Lutron"
              }
            }
          ]
        }
      }
    },
    {
      "client_info": {
        "mobilesdk_app_id": "1:471427896341:android:d122dde2f9d6f5ec6d6a1c",
        "android_client_info": {
          "package_name": "com.demo.restaurantsearch"
        }
      },
      "oauth_client": [
        {
          "client_id": "471427896341-fsrbvrm8mb2isrnbbcil3lcu29kahkg4.apps.googleusercontent.com",
          "client_type": 3
        }
      ],
      "api_key": [
        {
          "current_key": "AIzaSyBsGW8dQLkOFS8KCLfQLR0D9eh1zeo65PE"
        }
      ],
      "services": {
        "appinvite_service": {
          "other_platform_oauth_client": [
            {
              "client_id": "471427896341-2i9ba3jrovm60ju47ggrajr5qoh7jp9m.apps.googleusercontent.com",
              "client_type": 3
            },
            {
              "client_id": "471427896341-vrjrqsc4npajh37n1a7dm9ibqprc7rmp.apps.googleusercontent.com",
              "client_type": 2,
              "ios_info": {
                "bundle_id": "com.dylananderson.Lutron"
              }
            }
          ]
        }
      }
    }
  ],
  "configuration_version": "1"
}